Data Mining: Crafting Video Games through Time
…
We initially pulled this dataset from Kaggle.com since it looked very interesting but relatively easy to work with. Since there were less than 5 missing values on the entire 1,512 x 14 sheet, we did not manipulate the data prior to downloading it. Below are the packages we downloaded collectively to create our visualizations and tables followed by the tibble of the raw dataset.

library(tidyverse)
library(gt)
library(lubridate)
library(patchwork)
library(stringr)
library(dplyr)
library(scales)

# import raw data file
games <- read_csv("games.csv")
games

# A tibble: 1,512 × 14
    ...1 Title    `Release Date` Team  Rating `Times Listed` `Number of Reviews`
   <dbl> <chr>    <chr>          <chr>  <dbl> <chr>          <chr>              
 1     0 Elden R… Feb 25, 2022   ['Ba…    4.5 3.9K           3.9K               
 2     1 Hades    Dec 10, 2019   ['Su…    4.3 2.9K           2.9K               
 3     2 The Leg… Mar 03, 2017   ['Ni…    4.4 4.3K           4.3K               
 4     3 Underta… Sep 15, 2015   ['to…    4.2 3.5K           3.5K               
 5     4 Hollow … Feb 24, 2017   ['Te…    4.4 3K             3K                 
 6     5 Minecra… Nov 18, 2011   ['Mo…    4.3 2.3K           2.3K               
 7     6 Omori    Dec 25, 2020   ['OM…    4.2 1.6K           1.6K               
 8     7 Metroid… Oct 07, 2021   ['Ni…    4.3 2.1K           2.1K               
 9     8 Among Us Jun 15, 2018   ['In…    3   867            867                
10     9 NieR: A… Feb 23, 2017   ['Pl…    4.3 2.9K           2.9K               
# ℹ 1,502 more rows
# ℹ 7 more variables: Genres <chr>, Summary <chr>, Reviews <chr>, Plays <chr>,
#   Playing <chr>, Backlogs <chr>, Wishlist <chr>
…
